<?xml version="1.0" encoding="utf-8"?>
<!-- Generator: Adobe Illustrator 19.2.0, SVG Export Plug-In . SVG Version: 6.00 Build 0)  -->
<svg version="1.1" id="Warstwa_1" xmlns="http://www.w3.org/2000/svg" xmlns:xlink="http://www.w3.org/1999/xlink" x="0px" y="0px"
	 viewBox="0 0 191.3 58" style="enable-background:new 0 0 191.3 58;" xml:space="preserve">
<style type="text/css">
	.st0{clip-path:url(#SVGID_2_);fill:#252525;}
	.st1{clip-path:url(#SVGID_4_);fill:url(#SVGID_5_);}
	.st2{clip-path:url(#SVGID_7_);fill:#020304;}
	.st3{clip-path:url(#SVGID_9_);fill:url(#SVGID_10_);}
	.st4{clip-path:url(#SVGID_12_);fill:url(#SVGID_13_);}
	.st5{clip-path:url(#SVGID_15_);fill:url(#SVGID_16_);}
	.st6{clip-path:url(#SVGID_18_);fill:url(#SVGID_19_);}
</style>
<g>
	<defs>
		<rect id="SVGID_1_" x="-44.7" y="-52.7" width="280.6" height="163.3"/>
	</defs>
	<clipPath id="SVGID_2_">
		<use xlink:href="#SVGID_1_"  style="overflow:visible;"/>
	</clipPath>
	<path class="st0" d="M73,15.8v8.7c0,1-0.1,1.8-0.2,2.3c-0.1,0.6-0.4,1.1-0.7,1.5c-0.7,0.8-1.6,1.2-2.7,1.2c-0.8,0-1.6-0.2-2.4-0.7
		l1-1.7c0.5,0.3,1,0.5,1.4,0.5c0.6,0,1-0.2,1.2-0.7c0.2-0.5,0.4-1.3,0.4-2.4v-8.7H73z"/>
	<path class="st0" d="M75.4,24.9c0-1.2,0.4-2.3,1.3-3.1c0.9-0.9,1.9-1.3,3.2-1.3c1.3,0,2.3,0.4,3.2,1.3c0.9,0.9,1.3,1.9,1.3,3.2
		c0,1.3-0.4,2.3-1.3,3.2c-0.9,0.8-2,1.3-3.2,1.3c-1.3,0-2.3-0.4-3.2-1.3C75.8,27.2,75.4,26.2,75.4,24.9 M77.4,24.9
		c0,0.8,0.2,1.5,0.7,2c0.5,0.5,1.1,0.7,1.8,0.7c0.8,0,1.4-0.2,1.8-0.7c0.5-0.5,0.7-1.1,0.7-2c0-0.8-0.2-1.5-0.7-2
		c-0.5-0.5-1.1-0.7-1.8-0.7c-0.7,0-1.3,0.2-1.8,0.7C77.6,23.5,77.4,24.1,77.4,24.9"/>
	<path class="st0" d="M92.7,20.7h2v8.4h-2v-0.9c-0.8,0.8-1.7,1.1-2.6,1.1c-1.2,0-2.1-0.4-2.9-1.3c-0.8-0.9-1.1-1.9-1.1-3.2
		c0-1.3,0.4-2.3,1.1-3.2c0.8-0.8,1.7-1.3,2.8-1.3c1,0,1.9,0.4,2.6,1.2V20.7z M88,24.9c0,0.8,0.2,1.5,0.6,2c0.4,0.5,1,0.8,1.7,0.8
		c0.7,0,1.3-0.2,1.8-0.7c0.4-0.5,0.7-1.2,0.7-2c0-0.8-0.2-1.4-0.7-2c-0.4-0.5-1-0.8-1.7-0.8c-0.7,0-1.2,0.3-1.7,0.8
		C88.3,23.5,88,24.1,88,24.9"/>
	<path class="st0" d="M97.2,20.7h2v0.8c0.7-0.7,1.4-1,2.3-1c1,0,1.7,0.3,2.3,0.9c0.5,0.5,0.7,1.4,0.7,2.6v5.2h-2v-4.7
		c0-0.8-0.1-1.4-0.3-1.7c-0.2-0.3-0.6-0.5-1.2-0.5c-0.6,0-1.1,0.2-1.4,0.6c-0.3,0.4-0.4,1.2-0.4,2.2v4.1h-2V20.7z"/>
	<path class="st0" d="M106.9,20.7h2v0.8c0.7-0.7,1.4-1,2.3-1c1,0,1.7,0.3,2.3,0.9c0.5,0.5,0.7,1.4,0.7,2.6v5.2h-2v-4.7
		c0-0.8-0.1-1.4-0.3-1.7c-0.2-0.3-0.6-0.5-1.2-0.5c-0.6,0-1.1,0.2-1.4,0.6c-0.3,0.4-0.4,1.2-0.4,2.2v4.1h-2V20.7z"/>
	<path class="st0" d="M122.9,20.7h2v8.4h-2v-0.9c-0.8,0.8-1.7,1.1-2.6,1.1c-1.2,0-2.1-0.4-2.9-1.3c-0.8-0.9-1.1-1.9-1.1-3.2
		c0-1.3,0.4-2.3,1.1-3.2c0.8-0.8,1.7-1.3,2.8-1.3c1,0,1.9,0.4,2.6,1.2V20.7z M118.3,24.9c0,0.8,0.2,1.5,0.6,2c0.4,0.5,1,0.8,1.7,0.8
		c0.7,0,1.3-0.2,1.8-0.7c0.4-0.5,0.7-1.2,0.7-2c0-0.8-0.2-1.4-0.7-2c-0.4-0.5-1-0.8-1.7-0.8c-0.7,0-1.2,0.3-1.7,0.8
		C118.5,23.5,118.3,24.1,118.3,24.9"/>
	<polygon class="st0" points="132.9,29.1 135.7,14.8 140.3,25.2 145,14.8 147.6,29.1 145.5,29.1 144.2,21.1 140.3,29.8 136.4,21.1 
		135,29.1 	"/>
	<path class="st0" d="M156.1,20.7h2v8.4h-2v-0.9c-0.8,0.8-1.7,1.1-2.6,1.1c-1.2,0-2.1-0.4-2.9-1.3c-0.8-0.9-1.1-1.9-1.1-3.2
		c0-1.3,0.4-2.3,1.1-3.2c0.8-0.8,1.7-1.3,2.8-1.3c1,0,1.9,0.4,2.6,1.2V20.7z M151.5,24.9c0,0.8,0.2,1.5,0.6,2c0.4,0.5,1,0.8,1.7,0.8
		c0.7,0,1.3-0.2,1.8-0.7c0.4-0.5,0.7-1.2,0.7-2c0-0.8-0.2-1.4-0.7-2c-0.4-0.5-1-0.8-1.7-0.8c-0.7,0-1.2,0.3-1.7,0.8
		C151.7,23.5,151.5,24.1,151.5,24.9"/>
	<polygon class="st0" points="162.5,14.5 162.5,23.4 165.3,20.7 167.9,20.7 164.2,24.2 168.1,29.1 165.6,29.1 162.8,25.6 
		162.5,25.9 162.5,29.1 160.6,29.1 160.6,14.5 	"/>
	<path class="st0" d="M175.3,20.7h2v8.4h-2v-0.9c-0.8,0.8-1.7,1.1-2.6,1.1c-1.2,0-2.1-0.4-2.9-1.3c-0.8-0.9-1.1-1.9-1.1-3.2
		c0-1.3,0.4-2.3,1.1-3.2c0.8-0.8,1.7-1.3,2.8-1.3c1,0,1.9,0.4,2.6,1.2V20.7z M170.6,24.9c0,0.8,0.2,1.5,0.6,2c0.4,0.5,1,0.8,1.7,0.8
		c0.7,0,1.3-0.2,1.8-0.7c0.4-0.5,0.7-1.2,0.7-2c0-0.8-0.2-1.4-0.7-2c-0.4-0.5-1-0.8-1.7-0.8c-0.7,0-1.2,0.3-1.7,0.8
		C170.8,23.5,170.6,24.1,170.6,24.9"/>
	<path class="st0" d="M179.7,20.7h2v0.8c0.7-0.7,1.4-1,2.3-1c1,0,1.7,0.3,2.3,0.9c0.5,0.5,0.7,1.4,0.7,2.6v5.2h-2v-4.7
		c0-0.8-0.1-1.4-0.3-1.7c-0.2-0.3-0.6-0.5-1.2-0.5c-0.6,0-1.1,0.2-1.4,0.6c-0.3,0.4-0.4,1.2-0.4,2.2v4.1h-2V20.7z"/>
	<polygon class="st0" points="66.3,38.1 68.3,36.1 69.4,36.1 67,38.4 69.4,41.2 68.3,41.2 66.5,38.9 66.3,39.1 66.3,41.2 65.5,41.2 
		65.5,36.1 66.3,36.1 	"/>
	<path class="st0" d="M73.8,40h-2.2L71,41.2h-0.8l2.6-5.5l2.5,5.5h-0.9L73.8,40z M73.5,39.2l-0.8-1.8l-0.8,1.8H73.5z"/>
	<polygon class="st0" points="76.3,41.2 76.3,35.7 80,39.7 80,36.1 80.8,36.1 80.8,41.5 77,37.6 77,41.2 	"/>
	<path class="st0" d="M86.3,36.3v0.9c-0.5-0.4-0.9-0.6-1.4-0.6c-0.5,0-1,0.2-1.3,0.6c-0.4,0.4-0.5,0.8-0.5,1.4c0,0.5,0.2,1,0.5,1.4
		c0.4,0.4,0.8,0.6,1.3,0.6c0.3,0,0.5,0,0.7-0.1c0.1,0,0.2-0.1,0.3-0.2c0.1-0.1,0.2-0.2,0.4-0.3v0.9c-0.4,0.3-0.9,0.4-1.4,0.4
		c-0.7,0-1.4-0.3-1.9-0.8c-0.5-0.5-0.8-1.1-0.8-1.9c0-0.7,0.2-1.2,0.7-1.8c0.5-0.6,1.2-0.9,2.1-0.9C85.4,36,85.8,36.1,86.3,36.3"/>
	<polygon class="st0" points="90.5,36.8 88.5,36.8 88.5,38 90.5,38 90.5,38.8 88.5,38.8 88.5,40.5 90.5,40.5 90.5,41.2 87.7,41.2 
		87.7,36.1 90.5,36.1 	"/>
	<polygon class="st0" points="92.8,36.1 92.8,40.5 94.3,40.5 94.3,41.2 92,41.2 92,36.1 	"/>
	<path class="st0" d="M98.7,40h-2.2l-0.6,1.3h-0.8l2.6-5.5l2.5,5.5h-0.9L98.7,40z M98.4,39.2l-0.8-1.8l-0.8,1.8H98.4z"/>
	<path class="st0" d="M102.9,39l1.6,2.2h-1l-1.5-2.1H102v2.1h-0.8v-5.2h0.9c0.7,0,1.2,0.1,1.5,0.4c0.3,0.3,0.5,0.7,0.5,1.1
		c0,0.4-0.1,0.7-0.3,0.9S103.3,39,102.9,39 M102,38.4h0.2c0.7,0,1.1-0.3,1.1-0.8c0-0.5-0.4-0.8-1.1-0.8H102V38.4z"/>
	<rect x="105.7" y="36.1" class="st0" width="0.8" height="5.2"/>
	<path class="st0" d="M111.1,40h-2.2l-0.6,1.3h-0.8l2.6-5.5l2.5,5.5h-0.9L111.1,40z M110.8,39.2l-0.8-1.8l-0.8,1.8H110.8z"/>
	<path class="st0" d="M118.8,39l1.6,2.2h-1l-1.5-2.1h-0.1v2.1H117v-5.2h0.9c0.7,0,1.2,0.1,1.5,0.4c0.3,0.3,0.5,0.7,0.5,1.1
		c0,0.4-0.1,0.7-0.3,0.9S119.1,39,118.8,39 M117.8,38.4h0.2c0.7,0,1.1-0.3,1.1-0.8c0-0.5-0.4-0.8-1.1-0.8h-0.3V38.4z"/>
	<path class="st0" d="M124.8,40h-2.2l-0.6,1.3h-0.8l2.6-5.5l2.5,5.5h-0.9L124.8,40z M124.5,39.2l-0.8-1.8l-0.8,1.8H124.5z"/>
	<path class="st0" d="M127.3,41.2v-5.2h1.1c0.5,0,0.9,0.1,1.2,0.2c0.3,0.1,0.6,0.3,0.9,0.5c0.5,0.5,0.8,1.1,0.8,1.9
		c0,0.8-0.3,1.4-0.8,1.9c-0.3,0.2-0.6,0.4-0.9,0.5c-0.3,0.1-0.7,0.1-1.2,0.1H127.3z M128.1,40.5h0.4c0.3,0,0.6,0,0.9-0.1
		c0.2-0.1,0.4-0.2,0.6-0.4c0.4-0.3,0.6-0.8,0.6-1.4c0-0.6-0.2-1-0.6-1.4c-0.3-0.3-0.8-0.5-1.5-0.5h-0.4V40.5z"/>
	<path class="st0" d="M136.5,36.3v0.9c-0.5-0.4-0.9-0.6-1.4-0.6c-0.5,0-1,0.2-1.3,0.6c-0.4,0.4-0.5,0.8-0.5,1.4c0,0.5,0.2,1,0.5,1.4
		s0.8,0.6,1.3,0.6c0.3,0,0.5,0,0.7-0.1c0.1,0,0.2-0.1,0.3-0.2c0.1-0.1,0.2-0.2,0.4-0.3v0.9c-0.4,0.3-0.9,0.4-1.4,0.4
		c-0.7,0-1.4-0.3-1.9-0.8c-0.5-0.5-0.8-1.1-0.8-1.9c0-0.7,0.2-1.2,0.7-1.8c0.5-0.6,1.2-0.9,2.1-0.9C135.6,36,136,36.1,136.5,36.3"/>
	<polygon class="st0" points="139,39 137.3,36.1 138.2,36.1 139.4,38.1 140.6,36.1 141.5,36.1 139.8,39 139.8,41.2 139,41.2 	"/>
	<path class="st0" d="M146.7,39.1v2.1h-0.8v-5.2h0.9c0.4,0,0.8,0,1,0.1c0.2,0.1,0.4,0.2,0.6,0.3c0.3,0.3,0.4,0.7,0.4,1.1
		c0,0.5-0.2,0.8-0.5,1.1c-0.3,0.3-0.7,0.4-1.3,0.4H146.7z M146.7,38.4h0.3c0.7,0,1.1-0.3,1.1-0.8c0-0.5-0.4-0.8-1.1-0.8h-0.3V38.4z"
		/>
	<path class="st0" d="M151.7,39l1.6,2.2h-1l-1.5-2.1h-0.1v2.1H150v-5.2h0.9c0.7,0,1.2,0.1,1.5,0.4c0.3,0.3,0.5,0.7,0.5,1.1
		c0,0.4-0.1,0.7-0.3,0.9S152,39,151.7,39 M150.7,38.4h0.2c0.7,0,1.1-0.3,1.1-0.8c0-0.5-0.4-0.8-1.1-0.8h-0.3V38.4z"/>
	<path class="st0" d="M157.8,40h-2.2l-0.6,1.3h-0.8l2.6-5.5l2.5,5.5h-0.9L157.8,40z M157.4,39.2l-0.8-1.8l-0.8,1.8H157.4z"/>
	<polygon class="st0" points="160,36.1 161.3,39.5 162.7,35.8 164.1,39.5 165.5,36.1 166.4,36.1 164.1,41.6 162.7,37.9 161.3,41.6 
		159.2,36.1 	"/>
	<polygon class="st0" points="167.4,41.2 167.4,35.7 171.2,39.7 171.2,36.1 171.9,36.1 171.9,41.5 168.2,37.6 168.2,41.2 	"/>
	<polygon class="st0" points="176.4,36.8 174.4,36.8 174.4,38 176.4,38 176.4,38.8 174.4,38.8 174.4,40.5 176.4,40.5 176.4,41.2 
		173.6,41.2 173.6,36.1 176.4,36.1 	"/>
	<path class="st0" d="M180.5,38.5h2.1v0.2c0,0.4,0,0.7-0.1,1c-0.1,0.3-0.2,0.5-0.5,0.8c-0.5,0.5-1.1,0.8-1.8,0.8
		c-0.7,0-1.3-0.3-1.9-0.8c-0.5-0.5-0.8-1.2-0.8-1.9c0-0.7,0.3-1.4,0.8-1.9c0.5-0.5,1.2-0.8,1.9-0.8c0.4,0,0.8,0.1,1.1,0.2
		c0.3,0.2,0.7,0.4,1,0.8l-0.6,0.5c-0.4-0.6-0.9-0.8-1.5-0.8c-0.5,0-1,0.2-1.4,0.6c-0.4,0.4-0.6,0.8-0.6,1.4c0,0.6,0.2,1,0.6,1.4
		c0.4,0.3,0.8,0.5,1.3,0.5c0.4,0,0.7-0.1,1-0.4c0.3-0.3,0.5-0.6,0.5-0.9h-1.3V38.5z"/>
	<path class="st0" d="M183.7,38.6c0-0.7,0.3-1.3,0.8-1.9c0.5-0.5,1.2-0.8,1.9-0.8c0.7,0,1.4,0.3,1.9,0.8c0.5,0.5,0.8,1.2,0.8,1.9
		c0,0.7-0.3,1.4-0.8,1.9c-0.5,0.5-1.2,0.8-1.9,0.8c-0.7,0-1.3-0.2-1.8-0.7C184,40.1,183.7,39.5,183.7,38.6 M184.5,38.6
		c0,0.6,0.2,1,0.6,1.4c0.4,0.4,0.8,0.6,1.3,0.6c0.5,0,1-0.2,1.4-0.6c0.4-0.4,0.6-0.8,0.6-1.4c0-0.5-0.2-1-0.6-1.4
		c-0.4-0.4-0.8-0.6-1.4-0.6c-0.5,0-1,0.2-1.4,0.6C184.7,37.6,184.5,38.1,184.5,38.6"/>
</g>
<g>
	<defs>
		<rect id="SVGID_3_" x="67" y="32.3" width="120" height="1"/>
	</defs>
	<clipPath id="SVGID_4_">
		<use xlink:href="#SVGID_3_"  style="overflow:visible;"/>
	</clipPath>
	
		<linearGradient id="SVGID_5_" gradientUnits="userSpaceOnUse" x1="-44.6718" y1="110.6663" x2="-43.6718" y2="110.6663" gradientTransform="matrix(119.959 0 0 -119.959 5425.8276 13308.2432)">
		<stop  offset="0" style="stop-color:#1E335D"/>
		<stop  offset="1" style="stop-color:#233E83"/>
	</linearGradient>
	<rect x="67" y="32.3" class="st1" width="120" height="1"/>
</g>
<g>
	<defs>
		<rect id="SVGID_6_" x="-44.7" y="-52.7" width="280.6" height="163.3"/>
	</defs>
	<clipPath id="SVGID_7_">
		<use xlink:href="#SVGID_6_"  style="overflow:visible;"/>
	</clipPath>
	<polygon class="st2" points="2.2,1.9 2.2,53 7.3,53 7.3,50.7 4.5,50.7 4.5,4.3 50.8,4.3 50.8,50.7 21,50.7 21,53 53.2,53 53.2,1.9 
			"/>
	<path class="st2" d="M21.9,16.8c0-0.4,0.1-0.6,0.3-0.7c0.2-0.1,0.4-0.1,0.7,0c0.2,0.1,0.5,0.2,0.7,0.4c0.1,0,0.1,0.1,0.2,0.1
		c0.2,0.2,0.4,0.4,0.4,0.7c0.1,1.1,0.2,2.5,0.1,4.3c-0.1,2,0,4.4,0.2,7.4c0.1-0.7,0.3-1.6,0.6-2.5c0.3-1,0.6-2,1-3
		c0.4-1,0.8-2,1.3-2.9c0.5-0.9,1-1.6,1.5-2.1c0.5-0.5,1-0.8,1.5-0.8c0.5,0,0.9,0.3,1.4,1c0.1,0.2,0.2,0.7,0.3,1.3
		c0.1,0.7,0.2,1.5,0.3,2.5c0.1,1,0.2,2,0.3,3.2c0.1,1.2,0.3,2.4,0.4,3.6c0.3-1,0.7-2.1,1.2-3.3c0.4-1.2,0.9-2.3,1.4-3.3
		c0.5-1,1.1-1.7,1.7-2.3c0.6-0.6,1.3-0.7,2.1-0.5c0.4,0.1,0.6,0.5,0.8,1.2c0.2,0.7,0.3,1.5,0.5,2.4c0.1,0.9,0.3,1.9,0.5,2.9
		c0.2,1,0.4,1.9,0.8,2.8c0.4,0.8,0.8,1.5,1.4,1.9c0.6,0.5,1.4,0.6,2.3,0.4c0.5,0,0.9,0,1.2,0c0.2,0,0.4,0,0.5,0.1
		c0.1,0,0.2,0.1,0.1,0.2c0,0.1,0,0.2,0,0.4c-1.6,0.9-2.9,1.3-3.9,1.1c-1-0.2-1.9-0.8-2.5-1.7c-0.7-0.9-1.1-2-1.5-3.3
		c-0.3-1.3-0.6-2.6-0.7-3.9c-0.1-0.6-0.3-0.8-0.6-0.7c-0.3,0.1-0.6,0.5-1,1.1c-0.4,0.6-0.8,1.3-1.2,2.2c-0.4,0.9-0.8,1.8-1.2,2.8
		c-0.4,1-0.7,1.9-1,2.9c-0.3,0.9-0.5,1.7-0.6,2.2c-0.2,0.4-0.5,0.5-1,0.4c-0.5-0.1-0.8-0.5-1-0.9c-0.2-0.7-0.4-1.5-0.5-2.6
		c-0.1-1-0.2-2.1-0.2-3.1c0-1.1-0.1-2.1-0.1-3.1c0-1-0.1-1.8-0.2-2.5c-0.1-0.7-0.2-1.2-0.4-1.4c-0.1-0.3-0.4-0.2-0.7,0.2
		c-0.7,1.2-1.3,2.5-1.8,4c-0.5,1.5-1,3-1.4,4.6c-0.4,1.6-0.7,3.2-0.9,4.7c-0.1,1-0.3,2.4-0.3,3.4c0,0.6-0.5,1-1.1,0.9
		c-0.2,0-0.4-0.1-0.5-0.2c-0.3-0.4-0.8-0.7-0.9-1.1c-0.1-0.6,0.1-1.7,0-3.3c0-1.6-0.1-3.5-0.2-5.6c-0.1-2.1-0.1-4.3-0.2-6.5
		C22.1,20.3,22,18.4,21.9,16.8"/>
	<path class="st2" d="M15.6,18.3c-0.2-0.7-0.1-1.4,0.3-1.9c0.1-0.2,0.3-0.3,0.4-0.4l0,0c0.6-0.5,1.5-0.2,1.7,0.6
		c0,0.1,0.1,0.2,0.1,0.3c0.2,0.8,1.4,9.9,1.8,10.9c0.2-0.1,1.7-4.4,2.3-7.3c0.1-0.6,0.4,5,0.2,5.8c-0.3,1-1.3,3.5-1.7,4.3
		c-0.3,0.7-0.4,1.1-0.4,1.5c0,0.3,0.6,12.1-0.1,16.2c-1.1,6.7-5.3,7.7-6.8,7.7c-2.1-0.1-4-1.3-4.4-4.6c-1-8,5.9-17,6.5-17.9
		c0.7-0.9,1.4-1.9,2.3-3c-0.1-0.6-0.8-5.7-0.9-6.6c-0.2-0.9-0.3-1.8-0.5-2.6c-0.2-0.9-0.3-1.6-0.5-2.3
		C15.7,18.8,15.6,18.5,15.6,18.3 M12.9,54c1.3,0.2,4.8,0,5.7-8c0.6-5.8-0.4-12.6-0.4-12.6c0,0-3.9,3.9-6.2,9.9
		C10.3,47.6,9.9,53.5,12.9,54"/>
	<path class="st2" d="M15,9.9c0.4-0.8,1.2-1.2,1.7-1c0.5,0.3,0.5,1.1,0,1.9c-0.4,0.8-1.2,1.2-1.7,1C14.6,11.6,14.5,10.7,15,9.9"/>
</g>
<g>
	<defs>
		<polygon id="SVGID_8_" points="2.2,1.9 2.2,53 7.3,53 7.3,50.7 4.5,50.7 4.5,4.3 50.8,4.3 50.8,50.7 21,50.7 21,53 53.2,53 
			53.2,1.9 		"/>
	</defs>
	<clipPath id="SVGID_9_">
		<use xlink:href="#SVGID_8_"  style="overflow:visible;"/>
	</clipPath>
	
		<linearGradient id="SVGID_10_" gradientUnits="userSpaceOnUse" x1="-44.6718" y1="110.6664" x2="-43.6718" y2="110.6664" gradientTransform="matrix(34.8689 60.3946 60.3946 -34.8689 -5115.7432 6554.0293)">
		<stop  offset="0" style="stop-color:#1E335D"/>
		<stop  offset="1" style="stop-color:#233E83"/>
	</linearGradient>
	<polygon class="st3" points="40.4,-20.1 75.3,40.3 14.9,75.1 -19.9,14.7 	"/>
</g>
<g>
	<defs>
		<path id="SVGID_11_" d="M22.2,16.1c-0.2,0.1-0.3,0.3-0.3,0.7c0.1,1.6,0.1,3.5,0.2,5.7c0.1,2.2,0.1,4.3,0.2,6.5
			c0.1,2.1,0.1,4,0.2,5.6c0,1.6-0.2,2.8,0,3.3c0.1,0.4,0.5,0.7,0.9,1.1c0.1,0.1,0.3,0.2,0.5,0.2c0.6,0.1,1.1-0.3,1.1-0.9
			c0.1-0.9,0.2-2.4,0.3-3.4c0.2-1.6,0.5-3.2,0.9-4.7c0.4-1.6,0.9-3.1,1.4-4.6c0.5-1.5,1.2-2.8,1.8-4c0.3-0.4,0.6-0.5,0.7-0.2
			c0.1,0.3,0.3,0.7,0.4,1.4c0.1,0.7,0.1,1.5,0.2,2.5c0,1,0,2,0.1,3.1c0,1.1,0.1,2.1,0.2,3.1c0.1,1,0.2,1.9,0.5,2.6
			c0.2,0.5,0.5,0.8,1,0.9c0.5,0.1,0.8,0,1-0.4c0.1-0.6,0.3-1.3,0.6-2.2c0.3-0.9,0.6-1.9,1-2.9c0.4-1,0.8-1.9,1.2-2.8
			c0.4-0.9,0.8-1.6,1.2-2.2c0.4-0.6,0.7-0.9,1-1.1c0.3-0.1,0.5,0.1,0.6,0.7c0.2,1.3,0.4,2.6,0.7,3.9c0.3,1.3,0.8,2.4,1.5,3.3
			c0.7,0.9,1.5,1.5,2.5,1.7c1,0.2,2.4-0.1,3.9-1.1c0-0.2,0-0.3,0-0.4c0-0.1,0-0.2-0.1-0.2c-0.1,0-0.3-0.1-0.5-0.1
			c-0.2,0-0.6,0-1.2,0c-1,0.2-1.7,0.1-2.3-0.4c-0.6-0.5-1.1-1.1-1.4-1.9c-0.4-0.8-0.6-1.7-0.8-2.8c-0.2-1-0.3-2-0.5-2.9
			c-0.1-0.9-0.3-1.7-0.5-2.4c-0.2-0.7-0.4-1.1-0.8-1.2c-0.8-0.3-1.5-0.1-2.1,0.5c-0.6,0.6-1.2,1.3-1.7,2.3c-0.5,1-1,2.1-1.4,3.3
			c-0.4,1.2-0.8,2.3-1.2,3.3c-0.2-1.2-0.3-2.4-0.4-3.6c-0.1-1.2-0.2-2.3-0.3-3.2c-0.1-1-0.2-1.8-0.3-2.5c-0.1-0.7-0.2-1.1-0.3-1.3
			c-0.4-0.7-0.9-1.1-1.4-1c-0.5,0-1,0.3-1.5,0.8c-0.5,0.5-1,1.2-1.5,2.1c-0.5,0.9-0.9,1.8-1.3,2.9c-0.4,1-0.7,2-1,3
			c-0.3,1-0.5,1.8-0.6,2.5c-0.2-2.9-0.2-5.4-0.2-7.4c0-1.8,0-3.2-0.1-4.3c0-0.3-0.2-0.5-0.4-0.7c-0.1,0-0.1-0.1-0.2-0.1
			c-0.3-0.2-0.5-0.3-0.7-0.4c-0.1,0-0.2-0.1-0.3-0.1C22.4,16,22.3,16.1,22.2,16.1"/>
	</defs>
	<clipPath id="SVGID_12_">
		<use xlink:href="#SVGID_11_"  style="overflow:visible;"/>
	</clipPath>
	
		<linearGradient id="SVGID_13_" gradientUnits="userSpaceOnUse" x1="-44.6718" y1="110.7534" x2="-43.6718" y2="110.7534" gradientTransform="matrix(34.8689 60.3946 60.3946 -34.8689 -5115.7432 6554.0293)">
		<stop  offset="0" style="stop-color:#1E335D"/>
		<stop  offset="1" style="stop-color:#233E83"/>
	</linearGradient>
	<polygon class="st4" points="41.3,4.9 57.8,33.5 28.4,50.5 11.8,21.9 	"/>
</g>
<g>
	<defs>
		<path id="SVGID_14_" d="M12.9,54c-3-0.5-2.6-6.4-0.9-10.8c2.3-6,6.2-9.9,6.2-9.9c0,0,1.1,6.9,0.4,12.6C17.9,53,15,54,13.5,54
			C13.2,54,13.1,54,12.9,54 M16.3,16L16.3,16c-0.1,0.1-0.3,0.2-0.4,0.4c-0.4,0.5-0.5,1.3-0.3,1.9c0.1,0.2,0.1,0.5,0.2,0.8
			c0.2,0.7,0.3,1.5,0.5,2.3c0.2,0.9,0.3,1.7,0.5,2.6c0.2,0.9,0.9,6,0.9,6.6c-0.9,1.1-1.6,2.1-2.3,3c-0.7,0.9-7.6,10-6.5,17.9
			c0.4,3.3,2.3,4.5,4.4,4.6c1.5,0.1,5.6-1,6.8-7.7c0.7-4.2,0.1-15.9,0.1-16.2c0-0.4,0.1-0.8,0.4-1.5c0.4-0.8,1.4-3.3,1.7-4.3
			c0.3-0.8,0-6.5-0.2-5.8c-0.5,2.9-2,7.2-2.3,7.3c-0.3-1-1.6-10-1.8-10.9c0-0.1-0.1-0.2-0.1-0.3c-0.1-0.5-0.6-0.8-1-0.8
			C16.7,15.8,16.5,15.8,16.3,16"/>
	</defs>
	<clipPath id="SVGID_15_">
		<use xlink:href="#SVGID_14_"  style="overflow:visible;"/>
	</clipPath>
	
		<linearGradient id="SVGID_16_" gradientUnits="userSpaceOnUse" x1="-44.6718" y1="110.4509" x2="-43.6718" y2="110.4509" gradientTransform="matrix(34.8689 60.3946 60.3946 -34.8689 -5115.7432 6554.0293)">
		<stop  offset="0" style="stop-color:#1E335D"/>
		<stop  offset="1" style="stop-color:#233E83"/>
	</linearGradient>
	<polygon class="st5" points="18.9,9.4 40,46 11.5,62.5 -9.6,25.9 	"/>
</g>
<g>
	<defs>
		<path id="SVGID_17_" d="M15,9.9c-0.4,0.8-0.4,1.7,0,1.9c0.5,0.3,1.2-0.2,1.7-1c0.4-0.8,0.4-1.7,0-1.9c-0.1-0.1-0.2-0.1-0.3-0.1
			C15.9,8.8,15.3,9.3,15,9.9"/>
	</defs>
	<clipPath id="SVGID_18_">
		<use xlink:href="#SVGID_17_"  style="overflow:visible;"/>
	</clipPath>
	
		<linearGradient id="SVGID_19_" gradientUnits="userSpaceOnUse" x1="-44.6718" y1="110.6411" x2="-43.6718" y2="110.6411" gradientTransform="matrix(34.8689 60.3946 60.3946 -34.8689 -5115.7432 6554.0293)">
		<stop  offset="0" style="stop-color:#1E335D"/>
		<stop  offset="1" style="stop-color:#233E83"/>
	</linearGradient>
	<polygon class="st6" points="16.5,7.7 18.5,11.3 15.2,13.2 13.1,9.7 	"/>
</g>
</svg>
